EESchema Schematic File Version 4
EELAYER 30 0
EELAYER END
$Descr B 17000 11000
encoding utf-8
Sheet 1 1
Title "CH32V003F4P6-R0-1v1-SchDoc"
Date "24 05 2023"
Rev ""
Comp ""
Comment1 ""
Comment2 ""
Comment3 ""
Comment4 ""
$EndDescr
Text Notes 12560 10700 0    60   ~ 0
=sheetnumber
Text Notes 13250 10300 0    60   ~ 0
*
Text Notes 13250 10400 0    60   ~ 0
*
Text Notes 13250 10500 0    60   ~ 0
*
Text Notes 13250 10600 0    60   ~ 0
*
Text Notes 13250 10700 0    60   ~ 0
*
Text Notes 12820 10700 0    60   ~ 0
=sheettotal
Text Notes 10980 10360 0    90   ~ 12
*
Text Notes 11770 10560 0    72   ~ 0
*
Text Notes 12690 10560 0    72   ~ 0
*
Text Notes 11000 10700 0    60   ~ 0
*
Text Notes 11850 10700 0    60   ~ 0
*
Text Notes 11000 10800 0    60   ~ 0
*
Wire Notes Line
	10700 10200 14300 10200
Wire Notes Line
	10700 10800 10700 10200
Wire Notes Line
	13200 10400 10700 10400
Wire Notes Line
	11400 10600 11400 10400
Wire Notes Line
	10700 10700 14300 10700
Wire Notes Line
	12300 10700 12300 10400
Wire Notes Line
	14300 10200 15300 10200
Wire Notes Line
	14300 10700 14300 10200
Text Notes 10750 10350 0    60   ~ 0
Title
Text Notes 10750 10550 0    60   ~ 0
Size:
Text Notes 11450 10550 0    60   ~ 0
Number:
Text Notes 10750 10700 0    60   ~ 0
Date:
Text Notes 10750 10800 0    60   ~ 0
File:
Text Notes 12350 10550 0    60   ~ 0
Revision:
Text Notes 12350 10700 0    60   ~ 0
Sheet
Text Notes 12690 10700 0    60   ~ 0
of
Wire Notes Line
	13200 10700 13200 10200
Text Notes 11600 10700 0    60   ~ 0
Time:
Text Notes 11000 10560 0    72   ~ 0
A3
Wire Notes Line
	13200 10600 10700 10600
Wire Notes Line
	15300 10700 14300 10700
$Comp
L power:GND #PWR?646E4ED0
U 1 1 646E4ED0
P 10480 8350
F 0 "GND" H 10480 8490 20  0000 C CNN
F 1 "GND" H 10480 8460 30  0000 C CNN
F 2 "" H 10480 8350 70  0000 C CNN
F 3 "" H 10480 8350 70  0000 C CNN
	1    10480 8350
	1    0    0    -1  
$EndComp
Wire Wire Line
	7460 10280 7660 10280
Wire Wire Line
	7460 9880 7460 10280
Wire Wire Line
	7460 9680 7460 9880
Wire Wire Line
	8160 10280 7960 10280
Wire Wire Line
	8160 9880 8160 10280
$Comp
L power:GND #PWR?646E4ECF
U 1 1 646E4ECF
P 8160 10280
F 0 "GND_2" H 8160 10420 20  0000 C CNN
F 1 "GND" H 8160 10390 30  0000 C CNN
F 2 "" H 8160 10280 70  0000 C CNN
F 3 "" H 8160 10280 70  0000 C CNN
	1    8160 10280
	1    0    0    -1  
$EndComp
Text Label 7460 9880 1 60 ~
NRST
$Comp
L power:+V5V #PWR?646E4ECE
U 1 1 646E4ECE
P 1520 4120
F 0 "V5V" H 1520 4120 20  0000 C CNN
F 1 "V5V" H 1520 4050 30  0000 C CNN
F 2 "" H 1520 4120 70  0000 C CNN
F 3 "" H 1520 4120 70  0000 C CNN
	1    1520 4120
	1    0    0    -1  
$EndComp
Text Label 1320 4120 0 60 ~
+5V
$Comp
L power:GND #PWR?646E4ECD
U 1 1 646E4ECD
P 3770 4720
F 0 "GND_3" H 3770 4860 20  0000 C CNN
F 1 "GND" H 3770 4830 30  0000 C CNN
F 2 "" H 3770 4720 70  0000 C CNN
F 3 "" H 3770 4720 70  0000 C CNN
	1    3770 4720
	1    0    0    -1  
$EndComp
$Comp
L power:GND #PWR?646E4ECC
U 1 1 646E4ECC
P 4470 4720
F 0 "GND_4" H 4470 4860 20  0000 C CNN
F 1 "GND" H 4470 4830 30  0000 C CNN
F 2 "" H 4470 4720 70  0000 C CNN
F 3 "" H 4470 4720 70  0000 C CNN
	1    4470 4720
	1    0    0    -1  
$EndComp
Text Label 4570 4020 0 60 ~
VCC
Wire Wire Line
	4470 4020 4470 4220
Wire Wire Line
	4720 4020 4470 4020
Wire Wire Line
	3070 4720 3070 4570
Wire Wire Line
	3770 4720 3070 4720
Wire Wire Line
	4470 4720 3770 4720
Wire Wire Line
	5120 4720 4470 4720
Wire Wire Line
	5120 4570 5120 4720
Wire Wire Line
	5120 4070 5120 4020
Wire Wire Line
	1220 4120 1520 4120
Wire Wire Line
	3070 4020 3070 4270
Wire Wire Line
	2820 4020 3070 4020
Wire Wire Line
	4470 4520 4470 4720
Wire Wire Line
	7250 5810 7250 5860
Wire Wire Line
	7950 5810 7950 5860
Wire Wire Line
	7250 6710 7250 6360
Wire Wire Line
	7950 6710 7950 6360
Text Label 7250 6410 3 60 ~
LED1
Text Label 7950 6410 3 60 ~
LED2
Wire Wire Line
	7050 4060 7450 4060
Wire Wire Line
	7050 4160 7450 4160
Text Label 7050 4060 0 60 ~
LED1
Text Label 7050 4160 0 60 ~
LED2
$Comp
L power:GND #PWR?646E4ECB
U 1 1 646E4ECB
P 9760 4940
F 0 "GND_5" H 9760 5080 20  0000 C CNN
F 1 "GND" H 9760 5050 30  0000 C CNN
F 2 "" H 9760 4940 70  0000 C CNN
F 3 "" H 9760 4940 70  0000 C CNN
	1    9760 4940
	1    0    0    -1  
$EndComp
$Comp
L power:GND #PWR?646E4ECA
U 1 1 646E4ECA
P 10860 4940
F 0 "GND_6" H 10860 5080 20  0000 C CNN
F 1 "GND" H 10860 5050 30  0000 C CNN
F 2 "" H 10860 4940 70  0000 C CNN
F 3 "" H 10860 4940 70  0000 C CNN
	1    10860 4940
	1    0    0    -1  
$EndComp
Text Label 9860 4940 1 60 ~
+5V
Text Label 10760 4940 1 60 ~
+5V
Wire Wire Line
	9860 4640 9860 4940
Wire Wire Line
	10760 4640 10760 4940
Wire Wire Line
	10060 4740 10060 4940
Wire Wire Line
	10660 4740 10660 4940
Text Label 1180 7340 0 60 ~
PD0
Text Label 3300 8940 0 60 ~
PA1
Text Label 3300 9430 0 60 ~
PA2
Text Label 5580 6640 0 60 ~
PD3
Text Label 5580 6740 0 60 ~
PD2
Text Label 5580 6840 0 60 ~
PD1
Text Label 1180 6640 0 60 ~
PD4
Text Label 5580 7540 0 60 ~
PC1
Text Label 5580 7440 0 60 ~
PC2
Text Label 1180 7540 0 60 ~
PC0
Text Label 5580 7340 0 60 ~
PC3
Text Label 5580 7240 0 60 ~
PC4
$Comp
L power:VCC #PWR?646E4EC9
U 1 1 646E4EC9
P 1080 7440
F 0 "VCC" H 1080 7440 20  0000 C CNN
F 1 "VCC" H 1080 7370 30  0000 C CNN
F 2 "" H 1080 7440 70  0000 C CNN
F 3 "" H 1080 7440 70  0000 C CNN
	1    1080 7440
	1    0    0    -1  
$EndComp
$Comp
L power:GND #PWR?646E4EC8
U 1 1 646E4EC8
P 780 7440
F 0 "GND_7" H 780 7580 20  0000 C CNN
F 1 "GND" H 780 7550 30  0000 C CNN
F 2 "" H 780 7440 70  0000 C CNN
F 3 "" H 780 7440 70  0000 C CNN
	1    780 7440
	1    0    0    -1  
$EndComp
Wire Wire Line
	5780 7040 5580 7040
$Comp
L power:GND #PWR?646E4EC7
U 1 1 646E4EC7
P 9520 8350
F 0 "GND_8" H 9520 8490 20  0000 C CNN
F 1 "GND" H 9520 8460 30  0000 C CNN
F 2 "" H 9520 8350 70  0000 C CNN
F 3 "" H 9520 8350 70  0000 C CNN
	1    9520 8350
	1    0    0    -1  
$EndComp
$Comp
L power:VCC #PWR?646E4EC6
U 1 1 646E4EC6
P 10400 8250
F 0 "VCC_2" H 10400 8250 20  0000 C CNN
F 1 "VCC" H 10400 8180 30  0000 C CNN
F 2 "" H 10400 8250 70  0000 C CNN
F 3 "" H 10400 8250 70  0000 C CNN
	1    10400 8250
	1    0    0    -1  
$EndComp
Wire Wire Line
	1380 7340 1180 7340
Wire Wire Line
	1380 7040 1180 7040
Wire Wire Line
	1380 7140 1180 7140
Wire Wire Line
	1180 6640 1380 6640
Wire Wire Line
	1180 7540 1380 7540
Wire Wire Line
	5580 7340 5780 7340
Wire Wire Line
	5580 7440 5780 7440
Wire Wire Line
	5580 7540 5780 7540
Wire Wire Line
	5780 6740 5580 6740
Wire Wire Line
	5780 6840 5580 6840
Wire Wire Line
	5780 6940 5580 6940
Text Notes 300 3500 0    132   ~ 0
POWER
Text Notes 6540 7860 0    132   ~ 0
PIN
Text Notes 300 5700 0    132   ~ 0
MCU
Text Notes 6480 3460 0    132   ~ 0
LED
Text Notes 6530 9630 0    132   ~ 0
RST
NoConn ~ 9960 4940
NoConn ~ 10560 4940
Text Notes 8750 3480 0    132   ~ 0
USB
Text Notes 2680 5580 0    132   ~ 0
CH32V003F4P6_MINI
Text Label 5580 6940 0 60 ~
PC7
$Comp
L power:VCC #PWR?646E4EC5
U 1 1 646E4EC5
P 8400 8180
F 0 "VCC_3" H 8400 8180 20  0000 C CNN
F 1 "VCC" H 8400 8110 30  0000 C CNN
F 2 "" H 8400 8180 70  0000 C CNN
F 3 "" H 8400 8180 70  0000 C CNN
	1    8400 8180
	1    0    0    -1  
$EndComp
$Comp
L power:VCC #PWR?646E4EC4
U 1 1 646E4EC4
P 7600 8180
F 0 "VCC_4" H 7600 8180 20  0000 C CNN
F 1 "VCC" H 7600 8110 30  0000 C CNN
F 2 "" H 7600 8180 70  0000 C CNN
F 3 "" H 7600 8180 70  0000 C CNN
	1    7600 8180
	1    0    0    -1  
$EndComp
$Comp
L power:GND #PWR?646E4EC3
U 1 1 646E4EC3
P 7600 8780
F 0 "GND_9" H 7600 8920 20  0000 C CNN
F 1 "GND" H 7600 8890 30  0000 C CNN
F 2 "" H 7600 8780 70  0000 C CNN
F 3 "" H 7600 8780 70  0000 C CNN
	1    7600 8780
	1    0    0    -1  
$EndComp
$Comp
L power:GND #PWR?646E4EC2
U 1 1 646E4EC2
P 8400 8780
F 0 "GND_10" H 8400 8920 20  0000 C CNN
F 1 "GND" H 8400 8890 30  0000 C CNN
F 2 "" H 8400 8780 70  0000 C CNN
F 3 "" H 8400 8780 70  0000 C CNN
	1    8400 8780
	1    0    0    -1  
$EndComp
Wire Wire Line
	5580 6640 5780 6640
Wire Wire Line
	8400 8280 8200 8280
Wire Wire Line
	780 7240 1380 7240
Wire Wire Line
	780 7440 780 7240
Wire Wire Line
	1380 7440 1080 7440
Wire Wire Line
	5580 7240 5780 7240
Wire Wire Line
	5780 7140 5580 7140
Text Label 5580 7140 0 60 ~
PC5
Text Label 5580 7040 0 60 ~
PC6
$Comp
L power:VCC #PWR?646E4EC1
U 1 1 646E4EC1
P 9600 8250
F 0 "VCC_5" H 9600 8250 20  0000 C CNN
F 1 "VCC" H 9600 8180 30  0000 C CNN
F 2 "" H 9600 8250 70  0000 C CNN
F 3 "" H 9600 8250 70  0000 C CNN
	1    9600 8250
	1    0    0    -1  
$EndComp
Wire Notes Line
	220 5220 6370 5220
Wire Notes Line
	6370 10790 6370 3210
Wire Notes Line
	8690 3190 8690 7590
Wire Notes Line
	11800 7610 6370 7610
Wire Notes Line
	11790 9300 6380 9300
Wire Wire Line
	1180 6740 1380 6740
Wire Wire Line
	1180 6840 1380 6840
Wire Wire Line
	820 6940 1380 6940
Wire Wire Line
	820 6950 820 6940
Text Label 1180 6740 0 60 ~
PD5
Text Label 1180 6840 0 60 ~
PD6
Text Label 1180 6940 0 60 ~
PD7
Text Label 860 6940 0 60 ~
NRST
$Comp
L power:GND #PWR?646E4EC0
U 1 1 646E4EC0
P 2340 9190
F 0 "GND_11" H 2340 9330 20  0000 C CNN
F 1 "GND" H 2340 9300 30  0000 C CNN
F 2 "" H 2340 9190 70  0000 C CNN
F 3 "" H 2340 9190 70  0000 C CNN
	1    2340 9190
	1    0    0    -1  
$EndComp
Wire Wire Line
	2340 9190 2340 8940
Wire Wire Line
	2340 9440 2340 9190
Wire Wire Line
	2790 8940 2640 8940
Wire Wire Line
	2790 8590 2790 8940
Wire Wire Line
	2640 9430 2640 9440
Wire Wire Line
	2780 9430 2640 9430
Wire Wire Line
	2780 9710 2780 9430
Wire Wire Line
	3460 9430 3180 9430
Wire Wire Line
	3460 9440 3460 9430
Wire Wire Line
	3440 8940 3190 8940
Text Label 1180 7040 0 60 ~
XI
Text Label 1180 7140 0 60 ~
XO
Text Label 2790 8700 1 60 ~
XI
Text Label 2780 9710 1 60 ~
XO
Text Label 7600 8280 0 60 ~
PD4
Text Label 8400 8280 0 60 ~
PD5
Text Label 7600 8380 0 60 ~
PD6
Text Label 8400 8380 0 60 ~
PD7
Text Label 7600 8480 0 60 ~
PA1
Text Label 8400 8480 0 60 ~
PA2
Text Label 7600 8580 0 60 ~
PD0
Text Label 8400 8580 0 60 ~
PC0
Wire Wire Line
	7600 8780 7600 8680
Wire Wire Line
	8400 8780 8400 8680
Text Label 10400 8450 0 60 ~
PD1
Wire Wire Line
	9520 8350 9600 8350
Wire Wire Line
	10400 8350 10480 8350
Text Label 9600 8450 0 60 ~
PD3
Text Label 9600 8550 0 60 ~
PD2
Text Label 10400 8550 0 60 ~
PC7
Text Label 9600 8650 0 60 ~
PC6
Text Label 10400 8650 0 60 ~
PC5
Text Label 9600 8750 0 60 ~
PC4
Text Label 10400 8750 0 60 ~
PC3
Text Label 9600 8850 0 60 ~
PC2
Text Label 10400 8850 0 60 ~
PC1
NoConn ~ 10160 4940
NoConn ~ 10260 4940
NoConn ~ 10360 4940
NoConn ~ 10460 4940
$Comp
L power:VCC #PWR?646E4EBF
U 1 1 646E4EBF
P 7250 5410
F 0 "VCC_6" H 7250 5410 20  0000 C CNN
F 1 "VCC" H 7250 5340 30  0000 C CNN
F 2 "" H 7250 5410 70  0000 C CNN
F 3 "" H 7250 5410 70  0000 C CNN
	1    7250 5410
	1    0    0    -1  
$EndComp
$Comp
L power:VCC #PWR?646E4EBE
U 1 1 646E4EBE
P 7950 5410
F 0 "VCC_7" H 7950 5410 20  0000 C CNN
F 1 "VCC" H 7950 5340 30  0000 C CNN
F 2 "" H 7950 5410 70  0000 C CNN
F 3 "" H 7950 5410 70  0000 C CNN
	1    7950 5410
	1    0    0    -1  
$EndComp
Text Notes 2890 8140 0    132   ~ 0
VCC-Support 5Vand3.3V
Wire Wire Line
	3770 4720 3770 4620
Wire Wire Line
	3070 3580 3540 3580
Wire Wire Line
	3070 4020 3070 3580
Wire Wire Line
	4470 3580 3940 3580
Wire Wire Line
	4470 4020 4470 3580
Wire Wire Line
	9970 9680 10240 9680
Wire Wire Line
	10960 9680 10640 9680
Wire Wire Line
	9970 9900 10240 9900
Wire Wire Line
	10960 9900 10640 9900
Wire Wire Line
	9970 10300 10240 10300
Wire Wire Line
	10960 10300 10640 10300
Wire Wire Line
	9970 10520 10240 10520
Wire Wire Line
	10960 10520 10640 10520
Text Label 9970 9680 0 60 ~
PD4
Text Label 10800 9680 0 60 ~
PD0
Text Label 9970 9900 0 60 ~
PD0
$Comp
L power:GND #PWR?646E4EBD
U 1 1 646E4EBD
P 10960 9900
F 0 "GND_12" H 10960 10040 20  0000 C CNN
F 1 "GND" H 10960 10010 30  0000 C CNN
F 2 "" H 10960 9900 70  0000 C CNN
F 3 "" H 10960 9900 70  0000 C CNN
	1    10960 9900
	1    0    0    -1  
$EndComp
Text Label 9970 10300 0 60 ~
PD4
Text Label 10800 10300 0 60 ~
PA1
Text Label 9970 10520 0 60 ~
PA1
$Comp
L power:GND #PWR?646E4EBC
U 1 1 646E4EBC
P 10960 10520
F 0 "GND_13" H 10960 10660 20  0000 C CNN
F 1 "GND" H 10960 10630 30  0000 C CNN
F 2 "" H 10960 10520 70  0000 C CNN
F 3 "" H 10960 10520 70  0000 C CNN
	1    10960 10520
	1    0    0    -1  
$EndComp
Wire Notes Line
	9230 9300 9230 10790
Text Notes 9330 9600 0    132   ~ 0
OPA
Text Notes 11220 9880 0    84   ~ 0
Channel 1
Text Notes 11210 10500 0    84   ~ 0
Channel 0
$Comp
L power:GND #PWR?646E4EBB
U 1 1 646E4EBB
P 10060 4340
F 0 "GND_14" H 10060 4480 20  0000 C CNN
F 1 "GND" H 10060 4450 30  0000 C CNN
F 2 "" H 10060 4340 70  0000 C CNN
F 3 "" H 10060 4340 70  0000 C CNN
	1    10060 4340
	1    0    0    -1  
$EndComp
$Comp
L power:GND #PWR?646E4EBA
U 1 1 646E4EBA
P 10660 4340
F 0 "GND_15" H 10660 4480 20  0000 C CNN
F 1 "GND" H 10660 4450 30  0000 C CNN
F 2 "" H 10660 4340 70  0000 C CNN
F 3 "" H 10660 4340 70  0000 C CNN
	1    10660 4340
	1    0    0    -1  
$EndComp
Connection ~ 780 7440
Connection ~ 1080 7440
Connection ~ 1520 4120
Connection ~ 2340 9190
Connection ~ 2640 9440
Connection ~ 2640 8940
Connection ~ 2780 9430
Connection ~ 2790 8940
Connection ~ 3070 4020
Connection ~ 3770 4720
Connection ~ 4470 4720
Connection ~ 4470 4020
Connection ~ 7460 9880
Connection ~ 7600 8780
Connection ~ 8160 10280
Connection ~ 8400 8780
$Comp
L Cap C11
U 1 1 646E4EB9
P 7860 10380
F 0 "C11" H 7970 10190 60  0000 R TNN
F 1 "0.1uF" H 7970 10470 60  0000 R TNN
F 2 "" H 7970 10470 60  0000 C CNN
F 3 "" H 7970 10470 60  0000 C CNN
	1    7860 10380
	-1   0    0    1
$EndComp
$Comp
L Res_Semi R3
U 1 1 646E4EB8
P 8050 5510
F 0 "R3" V 8140 5440 60  0000 L BNN
F 1 "1K" V 8240 5440 60  0000 L BNN
F 2 "" H 8240 5440 60  0000 C CNN
F 3 "" H 8240 5440 60  0000 C CNN
	1    8050 5510
	0    1    1    0
$EndComp
$Comp
L TYPE-C1 P7
U 1 1 646E4EB7
P 9660 5240
F 0 "P7" H 9660 4540 60  0000 L BNN
F 1 "TYPE-C" H 9660 4440 60  0000 L BNN
F 2 "" H 9660 4440 60  0000 C CNN
F 3 "" H 9660 4440 60  0000 C CNN
	1    9660 5240
	1    0    0    -1
$EndComp
$Comp
L Cap C18
U 1 1 646E4EB6
P 880 7340
F 0 "C18" H 680 7040 60  0000 L BNN
F 1 "0.1uF" H 680 7140 60  0000 L BNN
F 2 "" H 680 7140 60  0000 C CNN
F 3 "" H 680 7140 60  0000 C CNN
	1    880 7340
	1    0    0    -1
$EndComp
$Comp
L CAP C12
U 1 1 646E4EB5
P 3070 4270
F 0 "C12" V 3260 4370 60  0000 L BNN
F 1 "10uF" V 3360 4370 60  0000 L BNN
F 2 "" H 3360 4370 60  0000 C CNN
F 3 "" H 3360 4370 60  0000 C CNN
	1    3070 4270
	0    1    1    0
$EndComp
$Comp
L CAP C13
U 1 1 646E4EB4
P 4470 4520
F 0 "C13" V 4580 4420 60  0000 R TNN
F 1 "2.2uF" V 4480 4420 60  0000 R TNN
F 2 "" H 4480 4420 60  0000 C CNN
F 3 "" H 4480 4420 60  0000 C CNN
	1    4470 4520
	0    -1   -1   0
$EndComp
$Comp
L Header_7X2 P2
U 1 1 646E4EB3
P 9800 8150
F 0 "P2" H 9800 8150 60  0000 L BNN
F 1 "Header 7X2" H 9800 7250 60  0000 L BNN
F 2 "" H 9800 7250 60  0000 C CNN
F 3 "" H 9800 7250 60  0000 C CNN
	1    9800 8150
	1    0    0    -1
$EndComp
$Comp
L Header_7X2 P1
U 1 1 646E4EB2
P 7800 8080
F 0 "P1" H 7800 8080 60  0000 L BNN
F 1 "Header 7X2" H 7800 7180 60  0000 L BNN
F 2 "" H 7800 7180 60  0000 C CNN
F 3 "" H 7800 7180 60  0000 C CNN
	1    7800 8080
	1    0    0    -1
$EndComp
$Comp
L XTAL Y1
U 1 1 646E4EB1
P 2740 9140
F 0 "Y1" V 2830 9120 60  0000 L BNN
F 1 "24MHz" V 2930 9120 60  0000 L BNN
F 2 "" H 2930 9120 60  0000 C CNN
F 3 "" H 2930 9120 60  0000 C CNN
	1    2740 9140
	0    1    1    0
$EndComp
$Comp
L CAP C8
U 1 1 646E4EB0
P 2440 9540
F 0 "C8" V 2640 9550 60  0000 R TNN
F 1 "22pF" V 2440 9740 60  0000 R TNN
F 2 "" H 2440 9740 60  0000 C CNN
F 3 "" H 2440 9740 60  0000 C CNN
	1    2440 9540
	0    -1   -1   0
$EndComp
$Comp
L CAP C7
U 1 1 646E4EAF
P 2440 9040
F 0 "C7" V 2340 9040 60  0000 R TNN
F 1 "22pF" V 2540 9240 60  0000 R TNN
F 2 "" H 2540 9240 60  0000 C CNN
F 3 "" H 2540 9240 60  0000 C CNN
	1    2440 9040
	0    -1   -1   0
$EndComp
$Comp
L KEY S1
U 1 1 646E4EAE
P 7860 9880
F 0 "S1" H 7650 9750 60  0000 L BNN
	1    7860 9880
	1    0    0    -1
$EndComp
$Comp
L Res_Semi R4
U 1 1 646E4EAD
P 2880 9330
F 0 "R4" H 3020 9260 60  0000 L BNN
F 1 "NC(0R)" H 2870 9100 60  0000 L BNN
F 2 "" H 2870 9100 60  0000 C CNN
F 3 "" H 2870 9100 60  0000 C CNN
	1    2880 9330
	1    0    0    -1
$EndComp
$Comp
L Res_Semi R5
U 1 1 646E4EAC
P 2890 8840
F 0 "R5" H 3000 8770 60  0000 L BNN
F 1 "NC(0R)" H 2880 8610 60  0000 L BNN
F 2 "" H 2880 8610 60  0000 C CNN
F 3 "" H 2880 8610 60  0000 C CNN
	1    2890 8840
	1    0    0    -1
$EndComp
$Comp
L CH32V003F4P6 U2
U 1 1 646E4EAB
P 1580 6340
F 0 "U2" H 1580 6340 60  0000 L BNN
F 1 "CH32V003F4P6" H 1580 4740 60  0000 L BNN
F 2 "" H 1580 4740 60  0000 C CNN
F 3 "" H 1580 4740 60  0000 C CNN
	1    1580 6340
	1    0    0    -1
$EndComp
$Comp
L 6219P33M U1
U 1 1 646E4EAA
P 3370 3920
F 0 "U1" H 3370 3920 60  0000 L BNN
F 1 "6219P33M" H 3650 3910 60  0000 L BNN
F 2 "" H 3650 3910 60  0000 C CNN
F 3 "" H 3650 3910 60  0000 C CNN
	1    3370 3920
	1    0    0    -1
$EndComp
$Comp
L Res_Semi R10
U 1 1 646E4EA9
P 3640 3480
F 0 "R10" H 3670 3430 60  0000 L BNN
F 1 "NC(0R)" H 3630 3250 60  0000 L BNN
F 2 "" H 3630 3250 60  0000 C CNN
F 3 "" H 3630 3250 60  0000 C CNN
	1    3640 3480
	1    0    0    -1
$EndComp
$Comp
L Res_Semi R6
U 1 1 646E4EA8
P 10340 9580
F 0 "R6" H 10290 9370 60  0000 L BNN
F 1 "NC" H 10450 9360 60  0000 L BNN
F 2 "" H 10450 9360 60  0000 C CNN
F 3 "" H 10450 9360 60  0000 C CNN
	1    10340 9580
	1    0    0    -1
$EndComp
$Comp
L Res_Semi R7
U 1 1 646E4EA7
P 10340 9800
F 0 "R7" H 10290 9590 60  0000 L BNN
F 1 "NC" H 10450 9580 60  0000 L BNN
F 2 "" H 10450 9580 60  0000 C CNN
F 3 "" H 10450 9580 60  0000 C CNN
	1    10340 9800
	1    0    0    -1
$EndComp
$Comp
L Res_Semi R8
U 1 1 646E4EA6
P 10340 10200
F 0 "R8" H 10300 9970 60  0000 L BNN
F 1 "NC" H 10460 9970 60  0000 L BNN
F 2 "" H 10460 9970 60  0000 C CNN
F 3 "" H 10460 9970 60  0000 C CNN
	1    10340 10200
	1    0    0    -1
$EndComp
$Comp
L Res_Semi R9
U 1 1 646E4EA5
P 10340 10420
F 0 "R9" H 10300 10190 60  0000 L BNN
F 1 "NC" H 10470 10200 60  0000 L BNN
F 2 "" H 10470 10200 60  0000 C CNN
F 3 "" H 10470 10200 60  0000 C CNN
	1    10340 10420
	1    0    0    -1
$EndComp
$Comp
L Res_Semi R12
U 1 1 646E4EA4
P 9960 4640
F 0 "R12" V 10070 4510 60  0000 R TNN
F 1 "NC(5.1K)" V 9970 4510 60  0000 R TNN
F 2 "" H 9970 4510 60  0000 C CNN
F 3 "" H 9970 4510 60  0000 C CNN
	1    9960 4640
	0    -1   -1   0
$EndComp
$Comp
L FUSE1 F1
U 1 1 646E4EA3
P 2320 3920
F 0 "F1" H 2310 3860 60  0000 L BNN
F 1 "500mA" H 2310 3680 60  0000 L BNN
F 2 "" H 2310 3680 60  0000 C CNN
F 3 "" H 2310 3680 60  0000 C CNN
	1    2320 3920
	1    0    0    -1
$EndComp
$Comp
L Res_Semi R11
U 1 1 646E4EA2
P 10560 4640
F 0 "R11" V 10670 4510 60  0000 R TNN
F 1 "NC(5.1K)" V 10570 4510 60  0000 R TNN
F 2 "" H 10570 4510 60  0000 C CNN
F 3 "" H 10570 4510 60  0000 C CNN
	1    10560 4640
	0    -1   -1   0
$EndComp
$Comp
L HEADER_2 P4
U 1 1 646E4EA1
P 7450 4060
F 0 "P4" H 7650 4160 60  0000 L BNN
F 1 "HEADER 2" H 7650 3760 60  0000 L BNN
F 2 "" H 7650 3760 60  0000 C CNN
F 3 "" H 7650 3760 60  0000 C CNN
	1    7450 4060
	1    0    0    -1
$EndComp
$Comp
L LED0 PWR
U 1 1 646E4EA0
P 5020 4270
F 0 "PWR" V 4930 4060 60  0000 R TNN
	1    5020 4270
	0    -1    1    0
$EndComp
$Comp
L Res_Semi R1
U 1 1 646E4E9F
P 5020 4120
F 0 "R1" H 5230 3990 60  0000 R TNN
F 1 "1K" H 5230 4150 60  0000 R TNN
F 2 "" H 5230 4150 60  0000 C CNN
F 3 "" H 5230 4150 60  0000 C CNN
	1    5020 4120
	-1   0    0    1
$EndComp
$Comp
L SW S2
U 1 1 646E4E9E
P 1720 4120
F 0 "S2" H 1710 4250 60  0000 L BNN
F 1 "SW" H 1710 3890 60  0000 L BNN
F 2 "" H 1710 3890 60  0000 C CNN
F 3 "" H 1710 3890 60  0000 C CNN
	1    1720 4120
	1    0    0    -1
$EndComp
$Comp
L LED0 LED1
U 1 1 646E4E9D
P 7150 6060
F 0 "LED1" V 7340 6270 60  0000 L BNN
	1    7150 6060
	0    1   -1   0
$EndComp
$Comp
L Res_Semi R2
U 1 1 646E4E9C
P 7350 5510
F 0 "R2" V 7440 5440 60  0000 L BNN
F 1 "1K" V 7540 5440 60  0000 L BNN
F 2 "" H 7540 5440 60  0000 C CNN
F 3 "" H 7540 5440 60  0000 C CNN
	1    7350 5510
	0    1    1    0
$EndComp
$Comp
L LED0 LED2
U 1 1 646E4E9B
P 7850 6060
F 0 "LED2" V 8040 6270 60  0000 L BNN
	1    7850 6060
	0    1   -1   0
$EndComp
$EndSCHEMATC