%TF.GenerationSoftware,KiCad,Pcbnew,7.0.1*%
%TF.CreationDate,2023-05-25T14:38:45-07:00*%
%TF.ProjectId,CH32V003F4P6-R0-1v1,43483332-5630-4303-9346-3450362d5230,rev?*%
%TF.SameCoordinates,PX78feda8PY70bc410*%
%TF.FileFunction,Paste,Top*%
%TF.FilePolarity,Positive*%
%FSLAX46Y46*%
G04 Gerber Fmt 4.6, Leading zero omitted, Abs format (unit mm)*
G04 Created by KiCad (PCBNEW 7.0.1) date 2023-05-25 14:38:45*
%MOMM*%
%LPD*%
G01*
G04 APERTURE LIST*
G04 Aperture macros list*
%AMRoundRect*
0 Rectangle with rounded corners*
0 $1 Rounding radius*
0 $2 $3 $4 $5 $6 $7 $8 $9 X,Y pos of 4 corners*
0 Add a 4 corners polygon primitive as box body*
4,1,4,$2,$3,$4,$5,$6,$7,$8,$9,$2,$3,0*
0 Add four circle primitives for the rounded corners*
1,1,$1+$1,$2,$3*
1,1,$1+$1,$4,$5*
1,1,$1+$1,$6,$7*
1,1,$1+$1,$8,$9*
0 Add four rect primitives between the rounded corners*
20,1,$1+$1,$2,$3,$4,$5,0*
20,1,$1+$1,$4,$5,$6,$7,0*
20,1,$1+$1,$6,$7,$8,$9,0*
20,1,$1+$1,$8,$9,$2,$3,0*%
G04 Aperture macros list end*
%ADD10R,0.300000X1.150000*%
%ADD11RoundRect,0.200000X0.275000X-0.200000X0.275000X0.200000X-0.275000X0.200000X-0.275000X-0.200000X0*%
%ADD12RoundRect,0.200000X-0.200000X-0.275000X0.200000X-0.275000X0.200000X0.275000X-0.200000X0.275000X0*%
%ADD13RoundRect,0.218750X0.218750X0.256250X-0.218750X0.256250X-0.218750X-0.256250X0.218750X-0.256250X0*%
%ADD14RoundRect,0.225000X-0.250000X0.225000X-0.250000X-0.225000X0.250000X-0.225000X0.250000X0.225000X0*%
%ADD15RoundRect,0.200000X-0.275000X0.200000X-0.275000X-0.200000X0.275000X-0.200000X0.275000X0.200000X0*%
%ADD16RoundRect,0.225000X0.250000X-0.225000X0.250000X0.225000X-0.250000X0.225000X-0.250000X-0.225000X0*%
%ADD17RoundRect,0.250000X0.325000X0.650000X-0.325000X0.650000X-0.325000X-0.650000X0.325000X-0.650000X0*%
%ADD18R,1.100000X1.000000*%
%ADD19RoundRect,0.218750X0.256250X-0.218750X0.256250X0.218750X-0.256250X0.218750X-0.256250X-0.218750X0*%
%ADD20RoundRect,0.100000X0.100000X-0.637500X0.100000X0.637500X-0.100000X0.637500X-0.100000X-0.637500X0*%
%ADD21RoundRect,0.150000X0.150000X-0.512500X0.150000X0.512500X-0.150000X0.512500X-0.150000X-0.512500X0*%
%ADD22RoundRect,0.218750X-0.218750X-0.256250X0.218750X-0.256250X0.218750X0.256250X-0.218750X0.256250X0*%
%ADD23R,1.400000X1.200000*%
%ADD24RoundRect,0.225000X0.225000X0.250000X-0.225000X0.250000X-0.225000X-0.250000X0.225000X-0.250000X0*%
G04 APERTURE END LIST*
D10*
%TO.C,P7*%
X23289000Y37610600D03*
X22489000Y37610600D03*
X21189000Y37610600D03*
X20189000Y37610600D03*
X19689000Y37610600D03*
X18689000Y37610600D03*
X17389000Y37610600D03*
X16589000Y37610600D03*
X16889000Y37610600D03*
X17689000Y37610600D03*
X18189000Y37610600D03*
X19189000Y37610600D03*
X20689000Y37610600D03*
X21689000Y37610600D03*
X22189000Y37610600D03*
X22989000Y37610600D03*
%TD*%
D11*
%TO.C,R11*%
X18796000Y32385000D03*
X18796000Y34035000D03*
%TD*%
D12*
%TO.C,R2*%
X28012000Y31584200D03*
X29662000Y31584200D03*
%TD*%
D13*
%TO.C,LED2*%
X34069500Y33731200D03*
X32494500Y33731200D03*
%TD*%
D14*
%TO.C,C18*%
X21844000Y9906000D03*
X21844000Y8356000D03*
%TD*%
D12*
%TO.C,R3*%
X28068000Y33782000D03*
X29718000Y33782000D03*
%TD*%
D15*
%TO.C,R4*%
X20574000Y5334000D03*
X20574000Y3684000D03*
%TD*%
D16*
%TO.C,C8*%
X18669000Y3805000D03*
X18669000Y5355000D03*
%TD*%
D17*
%TO.C,C12*%
X11127000Y31877000D03*
X8177000Y31877000D03*
%TD*%
D14*
%TO.C,C7*%
X16764000Y5339000D03*
X16764000Y3789000D03*
%TD*%
D18*
%TO.C,S1*%
X28318000Y40132000D03*
X35818000Y40132000D03*
%TD*%
D19*
%TO.C,PWR1*%
X18288000Y27463500D03*
X18288000Y29038500D03*
%TD*%
D15*
%TO.C,R6*%
X12247400Y13879070D03*
X12247400Y12229070D03*
%TD*%
%TO.C,R9*%
X14338150Y9855640D03*
X14338150Y8205640D03*
%TD*%
D20*
%TO.C,U2*%
X16633000Y12758500D03*
X17283000Y12758500D03*
X17933000Y12758500D03*
X18583000Y12758500D03*
X19233000Y12758500D03*
X19883000Y12758500D03*
X20533000Y12758500D03*
X21183000Y12758500D03*
X21833000Y12758500D03*
X22483000Y12758500D03*
X22483000Y18483500D03*
X21833000Y18483500D03*
X21183000Y18483500D03*
X20533000Y18483500D03*
X19883000Y18483500D03*
X19233000Y18483500D03*
X18583000Y18483500D03*
X17933000Y18483500D03*
X17283000Y18483500D03*
X16633000Y18483500D03*
%TD*%
D21*
%TO.C,U1*%
X7879000Y27304500D03*
X9779000Y27304500D03*
X8829000Y29579500D03*
%TD*%
D22*
%TO.C,F1*%
X9507500Y34671000D03*
X11082500Y34671000D03*
%TD*%
D11*
%TO.C,R5*%
X14732000Y3794000D03*
X14732000Y5444000D03*
%TD*%
D15*
%TO.C,R7*%
X12221080Y9863920D03*
X12221080Y8213920D03*
%TD*%
D14*
%TO.C,C13*%
X13970000Y29021000D03*
X13970000Y27471000D03*
%TD*%
D23*
%TO.C,Y1*%
X16800000Y8125760D03*
X19000000Y8125760D03*
X19000000Y9825760D03*
X16800000Y9825760D03*
%TD*%
D15*
%TO.C,R8*%
X14351000Y13842000D03*
X14351000Y12192000D03*
%TD*%
%TO.C,R1*%
X16129000Y29076000D03*
X16129000Y27426000D03*
%TD*%
D11*
%TO.C,R12*%
X20828000Y32386000D03*
X20828000Y34036000D03*
%TD*%
D13*
%TO.C,LED1*%
X34087000Y31572200D03*
X32512000Y31572200D03*
%TD*%
D24*
%TO.C,C11*%
X29617000Y35814000D03*
X28067000Y35814000D03*
%TD*%
D15*
%TO.C,R10*%
X11811000Y29082000D03*
X11811000Y27432000D03*
%TD*%
M02*
