%TF.GenerationSoftware,KiCad,Pcbnew,7.0.1*%
%TF.CreationDate,2023-05-25T14:38:46-07:00*%
%TF.ProjectId,CH32V003F4P6-R0-1v1,43483332-5630-4303-9346-3450362d5230,rev?*%
%TF.SameCoordinates,PX78feda8PY70bc410*%
%TF.FileFunction,Soldermask,Bot*%
%TF.FilePolarity,Negative*%
%FSLAX46Y46*%
G04 Gerber Fmt 4.6, Leading zero omitted, Abs format (unit mm)*
G04 Created by KiCad (PCBNEW 7.0.1) date 2023-05-25 14:38:46*
%MOMM*%
%LPD*%
G01*
G04 APERTURE LIST*
%ADD10C,0.650000*%
%ADD11O,1.000000X2.100000*%
%ADD12O,1.000000X1.600000*%
%ADD13R,1.700000X1.700000*%
%ADD14O,1.700000X1.700000*%
%ADD15C,1.500000*%
%ADD16R,1.308000X1.308000*%
%ADD17C,1.308000*%
G04 APERTURE END LIST*
D10*
%TO.C,P7*%
X22829000Y38675600D03*
X17049000Y38675600D03*
D11*
X24259000Y38175600D03*
D12*
X24259000Y42355600D03*
D11*
X15619000Y38175600D03*
D12*
X15619000Y42355600D03*
%TD*%
D13*
%TO.C,P4*%
X30475000Y27686000D03*
D14*
X33015000Y27686000D03*
%TD*%
D13*
%TO.C,P1*%
X4699000Y23749000D03*
D14*
X7239000Y23749000D03*
X4699000Y21209000D03*
X7239000Y21209000D03*
X4699000Y18669000D03*
X7239000Y18669000D03*
X4699000Y16129000D03*
X7239000Y16129000D03*
X4699000Y13589000D03*
X7239000Y13589000D03*
X4699000Y11049000D03*
X7239000Y11049000D03*
X4699000Y8509000D03*
X7239000Y8509000D03*
%TD*%
D15*
%TO.C,S2*%
X3425000Y40132000D03*
X11625000Y40132000D03*
D16*
X5525000Y40132000D03*
D17*
X7525000Y40132000D03*
X9525000Y40132000D03*
%TD*%
D13*
%TO.C,P2*%
X30475000Y23754000D03*
D14*
X33015000Y23754000D03*
X30475000Y21214000D03*
X33015000Y21214000D03*
X30475000Y18674000D03*
X33015000Y18674000D03*
X30475000Y16134000D03*
X33015000Y16134000D03*
X30475000Y13594000D03*
X33015000Y13594000D03*
X30475000Y11054000D03*
X33015000Y11054000D03*
X30475000Y8514000D03*
X33015000Y8514000D03*
%TD*%
M02*
